…
# features cln

MFW in the corpus

``` r
mfw <- corpus_tokenized %>% 
  group_by(word) %>% 
  count(sort = T) %>% 
  head(2000) 

mfw # just a look at the table and the curve
```

    # A tibble: 2,000 × 2
    # Groups:   word [2,000]
       word       n
       <chr>  <int>
     1 de    136904
     2 la     80999
     3 les    67821
     4 le     57629
     5 l      55286
     6 à      49281
     7 des    45837
     8 que    45093
     9 il     39968
    10 d      37451
    # ℹ 1,990 more rows
…
