G1787
…
  # remove paths for individual files
  select(-path)

str(corpus_t)

tibble [138 × 2] (S3: tbl_df/tbl/data.frame)
 $ text  : Named chr [1:138] "microcopy resotution test chart nbs ansi and iso test chart french revolution research collejoton lesarchivesde"| __truncated__ "convention nationale j c s et projet de décret sur l éducation nationale prononcés a la convention nationale le"| __truncated__ "des prochaines tee t s de l an par jean henri bancal représentant du peuple à la convention nationale au consei"| __truncated__ "observations j rés entées üiu a l assemblee nationale par m parère de fieuzac député du bigorue sur la nécejfit"| __truncated__ ...
  ..- attr(*, "names")= chr [1:138] "../corpus_cln//Bancal des Issarts_1.txt" "../corpus_cln//Bancal des Issarts_3.txt" "../corpus_cln//Bancal des Issarts_5.txt" "../corpus_cln//Barère_10.txt" ...
 $ author: chr [1:138] "Bancal des Issarts" "Bancal des Issarts" "Bancal des Issarts" "Barère" ...

corpus_t %>% count(author, sort = T)

# A tibble: 41 × 2
   author                  n
   <chr>               <int>
 1 Bergasse               15
 2 Baudeau                11
 3 Clavière               10
 4 Mercier                 7
 5 Desmoulins              6
 6 Epremesnil              6
 7 Barère                  5
 8 Manuel                  5
 9 Petion                  4
10 Sillery (Genlis Ch)     4
# ℹ 31 more rows
…
