…
### mfw cleaning

``` r
tokens %>% 
  filter(nchar(word) > 1) %>% 
  count(word, sort = T) %>% head(300)
```

    # A tibble: 300 × 2
       word      n
       <chr> <int>
     1 de    37882
     2 la    23416
     3 les   17567
     4 le    17162
     5 que   13245
     6 il    12650
     7 des   11941
     8 qui   10125
     9 qu     9411
    10 en     9084
    # ℹ 290 more rows
…
### large texts

Count number of tokens in each text & select authors which texts should
be trimmed

``` r
n_tokens_text <- corpus_authors %>% 
  unnest_tokens(input = text, output = word, token = "words") %>% 
  count(path, author, sort = T) 

n_tokens_text
```

    # A tibble: 28 × 3
       path                                                            author      n
       <chr>                                                           <chr>   <int>
     1 ../corpus_raw//D'Alembert_1779_281-Éloges lus dans les séances… D'Ale… 102334
     2 ../corpus_raw//Delisle-de-Sales_1777_308-De la philosophie de … Delis…  59846
     3 ../corpus_raw//Delisle-de-Sales_1779_314-Histoire nouvelle de … Delis…  58131
     4 ../corpus_raw//Marmontel_1765_355-Contes moraux.txt             Marmo…  54578
     5 ../corpus_raw//Marmontel_1777_391-Les Incas, ou La destruction… Marmo…  50986
     6 ../corpus_raw//Delisle-de-Sales_1773_313-Essai philosophique s… Delis…  43603
     7 ../corpus_raw//D'Alembert_1752_274-Élemens de musique.txt       D'Ale…  36810
     8 ../corpus_raw//Garat_1778_316-Eloge de Michel de L'Hôpital.txt  Garat   34930
     9 ../corpus_raw//Sieyes_1789_169-Qu'est-ce que le Tiers-État.txt  Sieyes  31158
    10 ../corpus_raw//La-Harpe_1797_349-Réfutation du Livre de l'Espr… La-Ha…  31054
    # ℹ 18 more rows
…
